{
	"id": "04a1328a-16d2-4a47-803f-2bc3978b25e8",
	"name": "REQRES_ENV",
	"values": [],
	"_postman_variable_scope": "environment",
	"_postman_exported_at": "2024-01-16T05:30:47.893Z",
	"_postman_exported_using": "Postman/10.21.14"
}